{    
    "checkout": {
        "commentTitle": "Kommentar zur Bestellung",
        "commissionTitle": "Kommission",
        "orderdetails": "Weitere Angaben zur Bestellung",
        "liefertermin": "Liefertermin"
    }
}
